…
``` r
library(spEDM)

popdensity = readr::read_csv(system.file("extdata/popdensity.csv",
                                   package = "spEDM"))
## Rows: 2806 Columns: 7
## ── Column specification ───────────────────────────────────────────────────────────────────────
## Delimiter: ","
## dbl (7): x, y, popDensity, DEM, Tem, Pre, slop
## 
## ℹ Use `spec()` to retrieve the full column specification for this data.
## ℹ Specify the column types or set `show_col_types = FALSE` to quiet this message.
popdensity
## # A tibble: 2,806 × 7
##        x     y popDensity   DEM   Tem   Pre  slop
##    <dbl> <dbl>      <dbl> <dbl> <dbl> <dbl> <dbl>
##  1  117.  30.5       780.     8  17.4 1528. 0.452
##  2  117.  30.6       395.    48  17.2 1487. 0.842
##  3  117.  30.8       261.    49  16.0 1456. 3.56 
##  4  116.  30.1       258.    23  17.4 1555. 0.932
##  5  116.  30.5       211.   101  16.3 1494. 3.34 
##  6  117.  31.0       386.    10  16.6 1382. 1.65 
##  7  117.  30.2       350.    23  17.5 1569. 0.346
##  8  117.  30.7       470.    22  17.1 1493. 1.88 
##  9  117.  30.6      1226.    11  17.4 1526. 0.208
## 10  116.  30.9       137.   598  13.9 1458. 5.92 
## # ℹ 2,796 more rows
```
…
Run GCCM:


``` r
res = gccm(cause = "popDensity",
           effect = "Pre",
           nbmat = nbmat,
           coords = coords,
           data = popd_sf,
           libsizes = seq(100, 2800, by = 100),
           E = 3)
res
## # A tibble: 28 × 9
##    lib_sizes x_xmap_y_mean x_xmap_y_sig x_xmap_y_upper x_xmap_y_lower y_xmap_x_mean
##        <dbl>         <dbl>        <dbl>          <dbl>          <dbl>         <dbl>
##  1       100        0.0364     5.37e- 2         0.0733      -0.000584        0.0603
##  2       200        0.0628     8.77e- 4         0.0996       0.0258          0.0817
##  3       300        0.0874     3.57e- 6         0.124        0.0505          0.0980
##  4       400        0.110      4.83e- 9         0.147        0.0735          0.119 
##  5       500        0.133      1.42e-12         0.169        0.0966          0.139 
##  6       600        0.157      0                0.193        0.121           0.160 
##  7       700        0.180      0                0.216        0.144           0.178 
##  8       800        0.201      0                0.236        0.165           0.196 
##  9       900        0.221      0                0.256        0.185           0.214 
## 10      1000        0.240      0                0.275        0.205           0.231 
## # ℹ 18 more rows
## # ℹ 3 more variables: y_xmap_x_sig <dbl>, y_xmap_x_upper <dbl>, y_xmap_x_lower <dbl>
```
…
